…
The third function `ISCA_clustertable()` runs OLS regressions for each
cluster across iterations. The output is a list storing the regression
estimates and adjusted R Squared values.

``` r
ISCA_modeling_res <- ISCA::ISCA_modeling(data= ISCA_step1, model_spec="religiosity ~ native + female + age + education + discrimination", draws = 5, n_clusters = 4)
#> `mutate_if()` ignored the following grouping variables:
#> • Column `cluster`
print(ISCA_modeling_res[1])
#> [[1]]
#> # A tibble: 30 × 5
#> # Groups:   cluster [5]
#>    cluster term           mean_coefficients mean_std.error mean_p_value
#>    <fct>   <chr>                      <dbl>          <dbl>        <dbl>
#>  1 1       (Intercept)               4.09           0.482        0.0012
#>  2 1       age                       0.0007         0.0036       0.784 
#>  3 1       discrimination            0.206          0.0873       0.267 
#>  4 1       education                 0.0283         0.047        0.765 
#>  5 1       female                    0.623          0.191        0.130 
#>  6 1       native                   -1.16           0.182        0.0048
#>  7 2       (Intercept)               4.23           0.537        0.0009
#>  8 2       age                      -0.0067         0.0066       0.504 
#>  9 2       discrimination            0.190          0.0649       0.285 
#> 10 2       education                 0.131          0.0692       0.417 
#> # ℹ 20 more rows
…
